…
``` r
# install.packages("devtools")
devtools::install_github("tyluRp/ucimlr")
```

## Example

We can load data by name and we can scrape the current list of datasets
using the `ucidata` function:

``` r
library(ucimlr)

automobile
#> # A tibble: 205 x 26
#>    symboling normalized_loss… make  fuel_type aspiration num_of_doors body_style
#>        <int>            <int> <chr> <chr>     <chr>      <chr>        <chr>     
#>  1         3               NA alfa… gas       std        two          convertib…
#>  2         3               NA alfa… gas       std        two          convertib…
#>  3         1               NA alfa… gas       std        two          hatchback 
#>  4         2              164 audi  gas       std        four         sedan     
#>  5         2              164 audi  gas       std        four         sedan     
#>  6         2               NA audi  gas       std        two          sedan     
#>  7         1              158 audi  gas       std        four         sedan     
#>  8         1               NA audi  gas       std        four         wagon     
#>  9         1              158 audi  gas       turbo      four         sedan     
#> 10         0               NA audi  gas       turbo      two          hatchback 
#> # … with 195 more rows, and 19 more variables: drive_wheels <chr>,
#> #   engine_location <chr>, wheel_base <dbl>, length <dbl>, width <dbl>,
#> #   height <dbl>, curb_weight <int>, engine_type <chr>, num_of_cylinders <chr>,
#> #   engine_size <int>, fuel_system <chr>, bore <dbl>, stroke <dbl>,
#> #   compression_ratio <dbl>, horsepower <int>, peak_rpm <int>, city_mpg <int>,
#> #   highway_mpg <int>, price <int>

ucidata()
#> * Scraping datasets from <https://archive.ics.uci.edu/ml/datasets.php>
#> # A tibble: 559 x 7
#>    name         type    task      variable_types    observations variables  year
#>    <chr>        <chr>   <chr>     <chr>                    <int>     <int> <int>
#>  1 Abalone      Multiv… Classifi… Categorical, Int…         4177         8  1995
#>  2 Adult        Multiv… Classifi… Categorical, Int…        48842        14  1996
#>  3 Annealing    Multiv… Classifi… Categorical, Int…          798        38    NA
#>  4 Anonymous M… <NA>    Recommen… Categorical              37711       294  1998
#>  5 Arrhythmia   Multiv… Classifi… Categorical, Int…          452       279  1998
#>  6 Artificial … Multiv… Classifi… Categorical, Int…         6000         7  1992
#>  7 Audiology (… Multiv… Classifi… Categorical                226        NA  1987
#>  8 Audiology (… Multiv… Classifi… Categorical                226        69  1992
#>  9 Auto MPG     Multiv… Regressi… Categorical, Real          398         8  1993
#> 10 Automobile   Multiv… Regressi… Categorical, Int…          205        26  1987
#> # … with 549 more rows
…
