UCI Machine Learning Repository • ucimlr
…
Installation

Keep in mind that this is a data package and as of now the package is ~3.54 MB. You can install ucimlr from GitHub with devtools:

# install.packages("devtools")
devtools::install_github("tyluRp/ucimlr")

Example

We can load data by name and we can scrape the current list of datasets using the ucidata function:

library(ucimlr)

automobile
#> # A tibble: 205 x 26
#>    symboling normalized_loss… make  fuel_type aspiration num_of_doors
#>        <int>            <int> <chr> <chr>     <chr>      <chr>       
#>  1         3               NA alfa… gas       std        two         
#>  2         3               NA alfa… gas       std        two         
#>  3         1               NA alfa… gas       std        two         
#>  4         2              164 audi  gas       std        four        
#>  5         2              164 audi  gas       std        four        
#>  6         2               NA audi  gas       std        two         
#>  7         1              158 audi  gas       std        four        
#>  8         1               NA audi  gas       std        four        
#>  9         1              158 audi  gas       turbo      four        
#> 10         0               NA audi  gas       turbo      two         
#> # … with 195 more rows, and 20 more variables: body_style <chr>,
#> #   drive_wheels <chr>, engine_location <chr>, wheel_base <dbl>,
#> #   length <dbl>, width <dbl>, height <dbl>, curb_weight <int>,
#> #   engine_type <chr>, num_of_cylinders <chr>, engine_size <int>,
#> #   fuel_system <chr>, bore <dbl>, stroke <dbl>, compression_ratio <dbl>,
#> #   horsepower <int>, peak_rpm <int>, city_mpg <int>, highway_mpg <int>,
#> #   price <int>

ucidata()
#> Scraping datasets from: https://archive.ics.uci.edu/ml/datasets.html
#> # A tibble: 468 x 7
#>    name       type    task    variable_types   observations variables  year
#>    <chr>      <chr>   <chr>   <chr>                   <int>     <int> <int>
#>  1 Abalone    Multiv… Classi… Categorical, In…         4177         8  1995
#>  2 Adult      Multiv… Classi… Categorical, In…        48842        14  1996
#>  3 Annealing  Multiv… Classi… Categorical, In…          798        38    NA
#>  4 Anonymous… <NA>    Recomm… Categorical             37711       294  1998
#>  5 Arrhythmia Multiv… Classi… Categorical, In…          452       279  1998
#>  6 Artificia… Multiv… Classi… Categorical, In…         6000         7  1992
#>  7 Audiology… Multiv… Classi… Categorical               226        NA  1987
#>  8 Audiology… Multiv… Classi… Categorical               226        69  1992
#>  9 Auto MPG   Multiv… Regres… Categorical, Re…          398         8  1993
#> 10 Automobile Multiv… Regres… Categorical, In…          205        26  1987
#> # … with 458 more rows
…
